us_tuition_costs
…
file_path = "../data/us_avg_tuition.xlsx"

tuition_costs <- read_excel(file_path)

Look at average tuition rates across states

tuition_costs %>% 
  gather(year_range, tuition, -State) %>%
  group_by(State) %>%
  summarise(avg_tuition = mean(tuition)) %>%
  arrange(desc(avg_tuition))

## # A tibble: 50 x 2
##    State          avg_tuition
##    <chr>                <dbl>
##  1 Vermont             13067.
##  2 New Hampshire       12781.
##  3 New Jersey          12054.
##  4 Pennsylvania        11970.
##  5 Illinois            11228.
##  6 Michigan            10477.
##  7 South Carolina      10377.
##  8 Delaware            10099.
##  9 Massachusetts       10058.
## 10 Ohio                 9942.
## # ... with 40 more rows
…
